Lab 01 - Hello R
…
##    dataset                x               y           
##  Length:1846        Min.   :15.56   Min.   : 0.01512  
##  Class :character   1st Qu.:41.07   1st Qu.:22.56107  
##  Mode  :character   Median :52.59   Median :47.59445  
##                     Mean   :54.27   Mean   :47.83510  
##                     3rd Qu.:67.28   3rd Qu.:71.81078  
##                     Max.   :98.29   Max.   :99.69468

view(datasaurus_dozen)

?iris

datasaurus_dozen

## # A tibble: 1,846 x 3
##    dataset     x     y
##    <chr>   <dbl> <dbl>
##  1 dino     55.4  97.2
##  2 dino     51.5  96.0
##  3 dino     46.2  94.5
##  4 dino     42.8  91.4
##  5 dino     40.8  88.3
##  6 dino     38.7  84.9
##  7 dino     35.6  79.9
##  8 dino     33.1  77.6
##  9 dino     29.0  74.5
## 10 dino     26.2  71.4
## #  with 1,836 more rows
…
